2872.59	1.12527		0	0.011428	
3544.67	1.03209		0	0	
3911.26	0.967033	0	0		
4216.75	0.937143	0	0.00747253		
5316.51	0.907253	0	0		
5866.38	0.904615	0	0		
6294.07	0.90989		0	0		
7271.63	0.940659	0	0		
8249.2	0.958242	0	0		
15397.6	1.06989		0	0.00835165	

