0.10000 107.52112 0.61682
0.30000 108.00130 0.63014
0.50000 102.85345 0.62041
0.70000 95.84172 0.60600
0.90000 88.21767 0.58813
1.10000 73.00022 0.52044
1.30000 61.37254 0.47773
1.50000 49.82808 0.43169
1.70000 38.18627 0.38062
1.90000 27.65747 0.32627
2.10000 19.77672 0.27437
2.30000 13.49568 0.22626
2.50000 7.89709 0.17326