0 98.1 1
0.1 97.614 0.831369
0.3 94.1454 0.848145
0.5 88.7989 0.813671
0.7 77.7653 0.789371
0.9 71.581 0.769308
1.1 63.7896 0.598189
1.3 51.4762 0.517219
1.5 41.6396 0.440278
1.7 32.2 0.367762
1.9 23.0328 0.291146
2.1 16.0173 0.23175
2.3 10.7793 0.173008
2.5 6.33473 0.125415