-0.05	285.81	4.42
0.05		283.62	4.40
0.50		286.05	3.33
0.70		277.20	2.45
0.90		282.72	2.08
1.10		262.49	2.70
1.30		250.85	2.15
2.20		193.36	2.50
2.50		168.70	4.71
3.05		124.68	4.21
3.15		115.30	2.67
3.25		110.68	1.60
3.35		92.42	1.88
3.53		89.54	1.62